contourpy==1.1.0
cycler==0.11.0
fonttools==4.42.1
kiwisolver==1.4.5
matplotlib==3.7.3
mpmath==1.3.0
numpy==1.25.2
packaging==23.1
Pillow==10.0.0
pyparsing==3.1.1
python-dateutil==2.8.2
six==1.16.0
sympy==1.12
